<mxfile host="app.diagrams.net" modified="2023-03-26T10:51:30.236Z" agent="5.0 (Windows)" etag="6zXJrxAqu3mLX6-nCIjB" version="21.0.8" type="gitlab">
  <diagram id="R2lEEEUBdFMjLlhIrx00" name="Page-1">
    <mxGraphModel dx="3110" dy="1825" grid="1" gridSize="10" guides="1" tooltips="1" connect="1" arrows="1" fold="1" page="1" pageScale="1" pageWidth="1654" pageHeight="1169" math="0" shadow="0" extFonts="Permanent Marker^https://fonts.googleapis.com/css?family=Permanent+Marker">
      <root>
        <mxCell id="0" />
        <mxCell id="1" parent="0" />
        <mxCell id="XgyNKMpnrks1NNAkq2kb-1" value="Trajectory Data" style="rounded=0;whiteSpace=wrap;html=1;" parent="1" vertex="1">
          <mxGeometry x="-804" y="-685" width="120" height="60" as="geometry" />
        </mxCell>
        <mxCell id="XgyNKMpnrks1NNAkq2kb-6" value="Map Data" style="rounded=0;whiteSpace=wrap;html=1;" parent="1" vertex="1">
          <mxGeometry x="-1220" y="-685" width="120" height="60" as="geometry" />
        </mxCell>
        <mxCell id="XgyNKMpnrks1NNAkq2kb-7" value="Submit" style="rhombus;whiteSpace=wrap;html=1;" parent="1" vertex="1">
          <mxGeometry x="-784" y="-840" width="80" height="80" as="geometry" />
        </mxCell>
        <mxCell id="XgyNKMpnrks1NNAkq2kb-8" value="Contributors" style="rounded=0;whiteSpace=wrap;html=1;" parent="1" vertex="1">
          <mxGeometry x="-804" y="-984" width="120" height="60" as="geometry" />
        </mxCell>
        <mxCell id="XgyNKMpnrks1NNAkq2kb-11" value="Insert" style="rhombus;whiteSpace=wrap;html=1;" parent="1" vertex="1">
          <mxGeometry x="-1200" y="-840" width="80" height="80" as="geometry" />
        </mxCell>
        <mxCell id="XgyNKMpnrks1NNAkq2kb-16" value="Modify" style="rhombus;whiteSpace=wrap;html=1;" parent="1" vertex="1">
          <mxGeometry x="-1062" y="-840" width="80" height="80" as="geometry" />
        </mxCell>
        <mxCell id="XgyNKMpnrks1NNAkq2kb-17" value="UpdateDate" style="ellipse;whiteSpace=wrap;html=1;" parent="1" vertex="1">
          <mxGeometry x="-982" y="-830" width="120" height="20" as="geometry" />
        </mxCell>
        <mxCell id="XgyNKMpnrks1NNAkq2kb-18" value="Reason" style="ellipse;whiteSpace=wrap;html=1;" parent="1" vertex="1">
          <mxGeometry x="-982" y="-810" width="120" height="20" as="geometry" />
        </mxCell>
        <mxCell id="XgyNKMpnrks1NNAkq2kb-21" value="PointData" style="rounded=0;whiteSpace=wrap;html=1;" parent="1" vertex="1">
          <mxGeometry x="-1290" y="-270" width="120" height="60" as="geometry" />
        </mxCell>
        <mxCell id="XgyNKMpnrks1NNAkq2kb-22" value="RoadData" style="rounded=0;whiteSpace=wrap;html=1;" parent="1" vertex="1">
          <mxGeometry x="-790" y="-264" width="120" height="60" as="geometry" />
        </mxCell>
        <mxCell id="XgyNKMpnrks1NNAkq2kb-23" value="RegionData" style="rounded=0;whiteSpace=wrap;html=1;" parent="1" vertex="1">
          <mxGeometry x="-537" y="-264" width="120" height="60" as="geometry" />
        </mxCell>
        <mxCell id="XgyNKMpnrks1NNAkq2kb-24" value="objectID" style="ellipse;whiteSpace=wrap;html=1;fontStyle=4" parent="1" vertex="1">
          <mxGeometry x="-1340" y="-695" width="120" height="30" as="geometry" />
        </mxCell>
        <mxCell id="XgyNKMpnrks1NNAkq2kb-26" value="Restaurant" style="rounded=0;whiteSpace=wrap;html=1;" parent="1" vertex="1">
          <mxGeometry x="-1375" y="-50" width="120" height="20" as="geometry" />
        </mxCell>
        <mxCell id="XgyNKMpnrks1NNAkq2kb-27" value="&lt;div&gt;Shop&lt;/div&gt;" style="rounded=0;whiteSpace=wrap;html=1;" parent="1" vertex="1">
          <mxGeometry x="-1240" y="-50" width="120" height="20" as="geometry" />
        </mxCell>
        <mxCell id="XgyNKMpnrks1NNAkq2kb-29" value="Public Service" style="rounded=0;whiteSpace=wrap;html=1;" parent="1" vertex="1">
          <mxGeometry x="-1500" y="-50" width="120" height="20" as="geometry" />
        </mxCell>
        <mxCell id="XgyNKMpnrks1NNAkq2kb-30" value="Highway" style="rounded=0;whiteSpace=wrap;html=1;direction=west;" parent="1" vertex="1">
          <mxGeometry x="-940" y="-55" width="120" height="35" as="geometry" />
        </mxCell>
        <mxCell id="XgyNKMpnrks1NNAkq2kb-33" value="Education" style="rounded=0;whiteSpace=wrap;html=1;" parent="1" vertex="1">
          <mxGeometry x="-1110" y="-50" width="120" height="20" as="geometry" />
        </mxCell>
        <mxCell id="XgyNKMpnrks1NNAkq2kb-42" value="Others" style="rounded=0;whiteSpace=wrap;html=1;" parent="1" vertex="1">
          <mxGeometry x="-1630" y="-50" width="120" height="20" as="geometry" />
        </mxCell>
        <mxCell id="XgyNKMpnrks1NNAkq2kb-43" value="ObjectName" style="ellipse;whiteSpace=wrap;html=1;fontStyle=4" parent="1" vertex="1">
          <mxGeometry x="-1410" y="-280" width="120" height="30" as="geometry" />
        </mxCell>
        <mxCell id="XgyNKMpnrks1NNAkq2kb-48" value="Primary" style="rounded=0;whiteSpace=wrap;html=1;" parent="1" vertex="1">
          <mxGeometry x="-810" y="-55" width="120" height="35" as="geometry" />
        </mxCell>
        <mxCell id="XgyNKMpnrks1NNAkq2kb-49" value="Residential" style="rounded=0;whiteSpace=wrap;html=1;" parent="1" vertex="1">
          <mxGeometry x="-680" y="-55" width="120" height="35" as="geometry" />
        </mxCell>
        <mxCell id="XgyNKMpnrks1NNAkq2kb-50" value="Footpath" style="rounded=0;whiteSpace=wrap;html=1;" parent="1" vertex="1">
          <mxGeometry x="-550" y="-55" width="120" height="35" as="geometry" />
        </mxCell>
        <mxCell id="XgyNKMpnrks1NNAkq2kb-55" value="&lt;div&gt;RoadName&lt;/div&gt;" style="ellipse;whiteSpace=wrap;html=1;fontStyle=4" parent="1" vertex="1">
          <mxGeometry x="-670" y="-280" width="120" height="36" as="geometry" />
        </mxCell>
        <mxCell id="XgyNKMpnrks1NNAkq2kb-57" value="LengthKM" style="ellipse;whiteSpace=wrap;html=1;" parent="1" vertex="1">
          <mxGeometry x="-670" y="-244" width="120" height="20" as="geometry" />
        </mxCell>
        <mxCell id="XgyNKMpnrks1NNAkq2kb-63" value="RegionName" style="ellipse;whiteSpace=wrap;html=1;fontStyle=4" parent="1" vertex="1">
          <mxGeometry x="-417" y="-274" width="120" height="31" as="geometry" />
        </mxCell>
        <mxCell id="XgyNKMpnrks1NNAkq2kb-64" value="AreaSize" style="ellipse;whiteSpace=wrap;html=1;" parent="1" vertex="1">
          <mxGeometry x="-417" y="-243" width="120" height="20" as="geometry" />
        </mxCell>
        <mxCell id="XgyNKMpnrks1NNAkq2kb-65" value="SqKM" style="ellipse;whiteSpace=wrap;html=1;" parent="1" vertex="1">
          <mxGeometry x="-417" y="-223" width="120" height="20" as="geometry" />
        </mxCell>
        <mxCell id="XgyNKMpnrks1NNAkq2kb-70" value="Member" style="rounded=0;whiteSpace=wrap;html=1;" parent="1" vertex="1">
          <mxGeometry x="-804" y="-1154" width="120" height="60" as="geometry" />
        </mxCell>
        <mxCell id="XgyNKMpnrks1NNAkq2kb-71" value="ContributionPoints" style="ellipse;whiteSpace=wrap;html=1;" parent="1" vertex="1">
          <mxGeometry x="-704" y="-815" width="120" height="30" as="geometry" />
        </mxCell>
        <mxCell id="XgyNKMpnrks1NNAkq2kb-72" value="Email" style="ellipse;whiteSpace=wrap;html=1;" parent="1" vertex="1">
          <mxGeometry x="-962" y="-1134" width="120" height="20" as="geometry" />
        </mxCell>
        <mxCell id="XgyNKMpnrks1NNAkq2kb-73" value="Name" style="ellipse;whiteSpace=wrap;html=1;" parent="1" vertex="1">
          <mxGeometry x="-962" y="-1114" width="120" height="20" as="geometry" />
        </mxCell>
        <mxCell id="XgyNKMpnrks1NNAkq2kb-75" value="JoinTime" style="ellipse;whiteSpace=wrap;html=1;" parent="1" vertex="1">
          <mxGeometry x="-684" y="-1109" width="120" height="30" as="geometry" />
        </mxCell>
        <mxCell id="XgyNKMpnrks1NNAkq2kb-76" value="JoinDate" style="ellipse;whiteSpace=wrap;html=1;" parent="1" vertex="1">
          <mxGeometry x="-684" y="-1139" width="120" height="30" as="geometry" />
        </mxCell>
        <mxCell id="XgyNKMpnrks1NNAkq2kb-77" value="Administrators" style="rounded=0;whiteSpace=wrap;html=1;" parent="1" vertex="1">
          <mxGeometry x="-1082" y="-1154" width="120" height="60" as="geometry" />
        </mxCell>
        <mxCell id="XgyNKMpnrks1NNAkq2kb-79" value="AdminID" style="ellipse;whiteSpace=wrap;html=1;fontStyle=4" parent="1" vertex="1">
          <mxGeometry x="-962" y="-1164" width="120" height="30" as="geometry" />
        </mxCell>
        <mxCell id="XgyNKMpnrks1NNAkq2kb-84" value="O" style="ellipse;whiteSpace=wrap;html=1;aspect=fixed;" parent="1" vertex="1">
          <mxGeometry x="-1215" y="-169" width="32" height="32" as="geometry" />
        </mxCell>
        <mxCell id="4Yzc2SaR8rv08KC-M6HZ-2" value="" style="endArrow=none;html=1;rounded=0;entryX=0.75;entryY=1;entryDx=0;entryDy=0;exitX=0;exitY=0.5;exitDx=0;exitDy=0;" parent="1" source="4Yzc2SaR8rv08KC-M6HZ-3" target="XgyNKMpnrks1NNAkq2kb-77" edge="1">
          <mxGeometry width="50" height="50" relative="1" as="geometry">
            <mxPoint x="-864" y="-1014" as="sourcePoint" />
            <mxPoint x="-744" y="-854" as="targetPoint" />
            <Array as="points">
              <mxPoint x="-992" y="-1044" />
            </Array>
          </mxGeometry>
        </mxCell>
        <mxCell id="4Yzc2SaR8rv08KC-M6HZ-3" value="U" style="ellipse;whiteSpace=wrap;html=1;aspect=fixed;" parent="1" vertex="1">
          <mxGeometry x="-760" y="-1060" width="32" height="32" as="geometry" />
        </mxCell>
        <mxCell id="4Yzc2SaR8rv08KC-M6HZ-5" value="" style="endArrow=none;html=1;rounded=0;entryX=0.5;entryY=1;entryDx=0;entryDy=0;exitX=0.5;exitY=0;exitDx=0;exitDy=0;" parent="1" source="4Yzc2SaR8rv08KC-M6HZ-3" target="XgyNKMpnrks1NNAkq2kb-70" edge="1">
          <mxGeometry width="50" height="50" relative="1" as="geometry">
            <mxPoint x="-794" y="-904" as="sourcePoint" />
            <mxPoint x="-744" y="-954" as="targetPoint" />
          </mxGeometry>
        </mxCell>
        <mxCell id="4Yzc2SaR8rv08KC-M6HZ-7" value="Map On Me" style="ellipse;shape=cloud;whiteSpace=wrap;html=1;" parent="1" vertex="1">
          <mxGeometry x="-210" y="-1154" width="146" height="90" as="geometry" />
        </mxCell>
        <mxCell id="4Yzc2SaR8rv08KC-M6HZ-8" value="" style="endArrow=none;html=1;rounded=0;entryX=0;entryY=0.5;entryDx=0;entryDy=0;exitX=0.5;exitY=0;exitDx=0;exitDy=0;" parent="1" source="XgyNKMpnrks1NNAkq2kb-11" target="XgyNKMpnrks1NNAkq2kb-77" edge="1">
          <mxGeometry width="50" height="50" relative="1" as="geometry">
            <mxPoint x="-744" y="-684" as="sourcePoint" />
            <mxPoint x="-694" y="-734" as="targetPoint" />
            <Array as="points">
              <mxPoint x="-1160" y="-1034" />
              <mxPoint x="-1160" y="-1124" />
            </Array>
          </mxGeometry>
        </mxCell>
        <mxCell id="4Yzc2SaR8rv08KC-M6HZ-9" value="" style="endArrow=none;html=1;rounded=0;entryX=0.5;entryY=1;entryDx=0;entryDy=0;exitX=0.5;exitY=0;exitDx=0;exitDy=0;" parent="1" source="XgyNKMpnrks1NNAkq2kb-7" target="XgyNKMpnrks1NNAkq2kb-8" edge="1">
          <mxGeometry width="50" height="50" relative="1" as="geometry">
            <mxPoint x="-744" y="-710" as="sourcePoint" />
            <mxPoint x="-694" y="-760" as="targetPoint" />
          </mxGeometry>
        </mxCell>
        <mxCell id="4Yzc2SaR8rv08KC-M6HZ-12" value="d" style="ellipse;whiteSpace=wrap;html=1;aspect=fixed;" parent="1" vertex="1">
          <mxGeometry x="-746" y="-175" width="32" height="32" as="geometry" />
        </mxCell>
        <mxCell id="4Yzc2SaR8rv08KC-M6HZ-15" value="" style="endArrow=none;html=1;rounded=0;entryX=0.5;entryY=1;entryDx=0;entryDy=0;exitX=0.5;exitY=0;exitDx=0;exitDy=0;" parent="1" source="4Yzc2SaR8rv08KC-M6HZ-12" target="XgyNKMpnrks1NNAkq2kb-22" edge="1">
          <mxGeometry width="50" height="50" relative="1" as="geometry">
            <mxPoint x="-610" y="-140" as="sourcePoint" />
            <mxPoint x="-560" y="-190" as="targetPoint" />
          </mxGeometry>
        </mxCell>
        <mxCell id="4Yzc2SaR8rv08KC-M6HZ-16" value="" style="endArrow=none;html=1;rounded=0;entryX=0;entryY=0.5;entryDx=0;entryDy=0;exitX=0.25;exitY=1;exitDx=0;exitDy=0;" parent="1" source="XgyNKMpnrks1NNAkq2kb-30" target="4Yzc2SaR8rv08KC-M6HZ-12" edge="1">
          <mxGeometry width="50" height="50" relative="1" as="geometry">
            <mxPoint x="-720" y="-165" as="sourcePoint" />
            <mxPoint x="-720" y="-229" as="targetPoint" />
            <Array as="points">
              <mxPoint x="-850" y="-159" />
            </Array>
          </mxGeometry>
        </mxCell>
        <mxCell id="4Yzc2SaR8rv08KC-M6HZ-17" value="" style="endArrow=none;html=1;rounded=0;entryX=0;entryY=1;entryDx=0;entryDy=0;exitX=0.25;exitY=0;exitDx=0;exitDy=0;" parent="1" source="XgyNKMpnrks1NNAkq2kb-48" target="4Yzc2SaR8rv08KC-M6HZ-12" edge="1">
          <mxGeometry width="50" height="50" relative="1" as="geometry">
            <mxPoint x="-760" y="-45" as="sourcePoint" />
            <mxPoint x="-736" y="-149" as="targetPoint" />
          </mxGeometry>
        </mxCell>
        <mxCell id="4Yzc2SaR8rv08KC-M6HZ-18" value="" style="endArrow=none;html=1;rounded=0;entryX=1;entryY=1;entryDx=0;entryDy=0;exitX=0.25;exitY=0;exitDx=0;exitDy=0;" parent="1" source="XgyNKMpnrks1NNAkq2kb-49" target="4Yzc2SaR8rv08KC-M6HZ-12" edge="1">
          <mxGeometry width="50" height="50" relative="1" as="geometry">
            <mxPoint x="-740" y="-45" as="sourcePoint" />
            <mxPoint x="-720" y="-133" as="targetPoint" />
          </mxGeometry>
        </mxCell>
        <mxCell id="4Yzc2SaR8rv08KC-M6HZ-19" value="" style="endArrow=none;html=1;rounded=0;entryX=1;entryY=0.5;entryDx=0;entryDy=0;exitX=0.25;exitY=0;exitDx=0;exitDy=0;" parent="1" source="XgyNKMpnrks1NNAkq2kb-50" target="4Yzc2SaR8rv08KC-M6HZ-12" edge="1">
          <mxGeometry width="50" height="50" relative="1" as="geometry">
            <mxPoint x="-730" y="-35" as="sourcePoint" />
            <mxPoint x="-710" y="-123" as="targetPoint" />
            <Array as="points">
              <mxPoint x="-520" y="-159" />
            </Array>
          </mxGeometry>
        </mxCell>
        <mxCell id="4Yzc2SaR8rv08KC-M6HZ-20" value="" style="endArrow=none;html=1;rounded=0;entryX=0;entryY=1;entryDx=0;entryDy=0;exitX=0.75;exitY=0;exitDx=0;exitDy=0;" parent="1" source="XgyNKMpnrks1NNAkq2kb-6" target="XgyNKMpnrks1NNAkq2kb-16" edge="1">
          <mxGeometry width="50" height="50" relative="1" as="geometry">
            <mxPoint x="-634" y="-560" as="sourcePoint" />
            <mxPoint x="-584" y="-610" as="targetPoint" />
          </mxGeometry>
        </mxCell>
        <mxCell id="4Yzc2SaR8rv08KC-M6HZ-22" value="MemberID" style="ellipse;whiteSpace=wrap;html=1;fontStyle=4" parent="1" vertex="1">
          <mxGeometry x="-684" y="-1169" width="120" height="30" as="geometry" />
        </mxCell>
        <mxCell id="4Yzc2SaR8rv08KC-M6HZ-24" value="" style="endArrow=none;html=1;rounded=0;entryX=0;entryY=0.5;entryDx=0;entryDy=0;exitX=0.75;exitY=0;exitDx=0;exitDy=0;" parent="1" source="XgyNKMpnrks1NNAkq2kb-42" target="XgyNKMpnrks1NNAkq2kb-84" edge="1">
          <mxGeometry width="50" height="50" relative="1" as="geometry">
            <mxPoint x="-1310" y="-149" as="sourcePoint" />
            <mxPoint x="-1260" y="-199" as="targetPoint" />
            <Array as="points">
              <mxPoint x="-1540" y="-150" />
            </Array>
          </mxGeometry>
        </mxCell>
        <mxCell id="4Yzc2SaR8rv08KC-M6HZ-25" value="" style="endArrow=none;html=1;rounded=0;entryX=0;entryY=1;entryDx=0;entryDy=0;exitX=0.75;exitY=0;exitDx=0;exitDy=0;" parent="1" source="XgyNKMpnrks1NNAkq2kb-29" target="XgyNKMpnrks1NNAkq2kb-84" edge="1">
          <mxGeometry width="50" height="50" relative="1" as="geometry">
            <mxPoint x="-1490" y="-89" as="sourcePoint" />
            <mxPoint x="-1205" y="-143" as="targetPoint" />
            <Array as="points">
              <mxPoint x="-1410" y="-140" />
            </Array>
          </mxGeometry>
        </mxCell>
        <mxCell id="4Yzc2SaR8rv08KC-M6HZ-27" value="" style="endArrow=none;html=1;rounded=0;entryX=0.5;entryY=1;entryDx=0;entryDy=0;exitX=0.5;exitY=0;exitDx=0;exitDy=0;" parent="1" source="XgyNKMpnrks1NNAkq2kb-26" target="XgyNKMpnrks1NNAkq2kb-84" edge="1">
          <mxGeometry width="50" height="50" relative="1" as="geometry">
            <mxPoint x="-1310" y="-149" as="sourcePoint" />
            <mxPoint x="-1260" y="-199" as="targetPoint" />
            <Array as="points">
              <mxPoint x="-1315" y="-110" />
              <mxPoint x="-1200" y="-110" />
            </Array>
          </mxGeometry>
        </mxCell>
        <mxCell id="4Yzc2SaR8rv08KC-M6HZ-28" value="" style="endArrow=none;html=1;rounded=0;entryX=1;entryY=1;entryDx=0;entryDy=0;exitX=0.75;exitY=0;exitDx=0;exitDy=0;" parent="1" source="XgyNKMpnrks1NNAkq2kb-27" target="XgyNKMpnrks1NNAkq2kb-84" edge="1">
          <mxGeometry width="50" height="50" relative="1" as="geometry">
            <mxPoint x="-1265" y="-89" as="sourcePoint" />
            <mxPoint x="-1189" y="-127" as="targetPoint" />
            <Array as="points">
              <mxPoint x="-1150" y="-142" />
            </Array>
          </mxGeometry>
        </mxCell>
        <mxCell id="4Yzc2SaR8rv08KC-M6HZ-29" value="" style="endArrow=none;html=1;rounded=0;entryX=1;entryY=0.5;entryDx=0;entryDy=0;exitX=0.25;exitY=0;exitDx=0;exitDy=0;" parent="1" source="XgyNKMpnrks1NNAkq2kb-33" target="XgyNKMpnrks1NNAkq2kb-84" edge="1">
          <mxGeometry width="50" height="50" relative="1" as="geometry">
            <mxPoint x="-1100" y="-89" as="sourcePoint" />
            <mxPoint x="-1178" y="-132" as="targetPoint" />
            <Array as="points">
              <mxPoint x="-1080" y="-153" />
            </Array>
          </mxGeometry>
        </mxCell>
        <mxCell id="4Yzc2SaR8rv08KC-M6HZ-30" value="" style="endArrow=none;html=1;rounded=0;entryX=0.75;entryY=1;entryDx=0;entryDy=0;" parent="1" target="XgyNKMpnrks1NNAkq2kb-21" edge="1">
          <mxGeometry width="50" height="50" relative="1" as="geometry">
            <mxPoint x="-1200" y="-170" as="sourcePoint" />
            <mxPoint x="-1120" y="-260" as="targetPoint" />
          </mxGeometry>
        </mxCell>
        <mxCell id="4Yzc2SaR8rv08KC-M6HZ-32" value="" style="verticalLabelPosition=bottom;verticalAlign=top;html=1;shape=mxgraph.basic.arc;startAngle=0.46251185199778944;endAngle=0.04613050160726947;rotation=-90;" parent="1" vertex="1">
          <mxGeometry x="-761" y="-1028" width="34" height="26" as="geometry" />
        </mxCell>
        <mxCell id="4Yzc2SaR8rv08KC-M6HZ-34" value="" style="endArrow=none;html=1;rounded=0;exitX=0.5;exitY=0;exitDx=0;exitDy=0;entryX=0.5;entryY=1;entryDx=0;entryDy=0;" parent="1" source="XgyNKMpnrks1NNAkq2kb-1" target="XgyNKMpnrks1NNAkq2kb-7" edge="1">
          <mxGeometry width="50" height="50" relative="1" as="geometry">
            <mxPoint x="-884" y="-720" as="sourcePoint" />
            <mxPoint x="-834" y="-770" as="targetPoint" />
          </mxGeometry>
        </mxCell>
        <mxCell id="4Yzc2SaR8rv08KC-M6HZ-38" value="" style="endArrow=none;html=1;rounded=0;entryX=0.5;entryY=1;entryDx=0;entryDy=0;exitX=0.5;exitY=0;exitDx=0;exitDy=0;" parent="1" source="XgyNKMpnrks1NNAkq2kb-16" target="XgyNKMpnrks1NNAkq2kb-77" edge="1">
          <mxGeometry width="50" height="50" relative="1" as="geometry">
            <mxPoint x="-824" y="-664" as="sourcePoint" />
            <mxPoint x="-774" y="-714" as="targetPoint" />
          </mxGeometry>
        </mxCell>
        <mxCell id="4Yzc2SaR8rv08KC-M6HZ-39" value="TrajID" style="ellipse;whiteSpace=wrap;html=1;fontStyle=4" parent="1" vertex="1">
          <mxGeometry x="-680" y="-697.5" width="120" height="35" as="geometry" />
        </mxCell>
        <mxCell id="4Yzc2SaR8rv08KC-M6HZ-42" value="Coordinates" style="rounded=0;whiteSpace=wrap;html=1;" parent="1" vertex="1">
          <mxGeometry x="-1070" y="-520" width="120" height="60" as="geometry" />
        </mxCell>
        <mxCell id="4Yzc2SaR8rv08KC-M6HZ-44" value="" style="endArrow=none;html=1;rounded=0;entryX=0.5;entryY=0;entryDx=0;entryDy=0;exitX=0.5;exitY=1;exitDx=0;exitDy=0;" parent="1" source="XgyNKMpnrks1NNAkq2kb-6" target="4Yzc2SaR8rv08KC-M6HZ-54" edge="1">
          <mxGeometry width="50" height="50" relative="1" as="geometry">
            <mxPoint x="-970" y="-510" as="sourcePoint" />
            <mxPoint x="-914" y="-630" as="targetPoint" />
          </mxGeometry>
        </mxCell>
        <mxCell id="4Yzc2SaR8rv08KC-M6HZ-48" value="TrajDate" style="ellipse;whiteSpace=wrap;html=1;fontStyle=0" parent="1" vertex="1">
          <mxGeometry x="-680" y="-662.5" width="120" height="35" as="geometry" />
        </mxCell>
        <mxCell id="4Yzc2SaR8rv08KC-M6HZ-50" value="TripDistance" style="ellipse;whiteSpace=wrap;html=1;fontStyle=0" parent="1" vertex="1">
          <mxGeometry x="-680" y="-627.5" width="120" height="35" as="geometry" />
        </mxCell>
        <mxCell id="4Yzc2SaR8rv08KC-M6HZ-51" value="Name" style="ellipse;whiteSpace=wrap;html=1;" parent="1" vertex="1">
          <mxGeometry x="-684" y="-1079" width="120" height="30" as="geometry" />
        </mxCell>
        <mxCell id="4Yzc2SaR8rv08KC-M6HZ-54" value="Contains" style="rhombus;whiteSpace=wrap;html=1;" parent="1" vertex="1">
          <mxGeometry x="-1200" y="-595" width="80" height="80" as="geometry" />
        </mxCell>
        <mxCell id="4Yzc2SaR8rv08KC-M6HZ-55" value="" style="endArrow=none;html=1;rounded=0;entryX=0.25;entryY=0;entryDx=0;entryDy=0;exitX=1;exitY=0.5;exitDx=0;exitDy=0;" parent="1" source="4Yzc2SaR8rv08KC-M6HZ-54" target="4Yzc2SaR8rv08KC-M6HZ-42" edge="1">
          <mxGeometry width="50" height="50" relative="1" as="geometry">
            <mxPoint x="-1090" y="-630" as="sourcePoint" />
            <mxPoint x="-1074" y="-580" as="targetPoint" />
            <Array as="points">
              <mxPoint x="-1040" y="-555" />
            </Array>
          </mxGeometry>
        </mxCell>
        <mxCell id="4Yzc2SaR8rv08KC-M6HZ-60" value="" style="endArrow=none;html=1;rounded=0;entryX=0;entryY=0.5;entryDx=0;entryDy=0;exitX=1;exitY=0.5;exitDx=0;exitDy=0;" parent="1" target="ivYMZoxCvG_gftRGBkcC-20" edge="1">
          <mxGeometry width="50" height="50" relative="1" as="geometry">
            <mxPoint x="-560" y="-575" as="sourcePoint" />
            <mxPoint x="-506" y="-595" as="targetPoint" />
          </mxGeometry>
        </mxCell>
        <mxCell id="4Yzc2SaR8rv08KC-M6HZ-61" value="" style="endArrow=none;html=1;rounded=0;entryX=0;entryY=0.5;entryDx=0;entryDy=0;exitX=1;exitY=0.5;exitDx=0;exitDy=0;" parent="1" target="ivYMZoxCvG_gftRGBkcC-21" edge="1">
          <mxGeometry width="50" height="50" relative="1" as="geometry">
            <mxPoint x="-560" y="-575" as="sourcePoint" />
            <mxPoint x="-506" y="-555" as="targetPoint" />
          </mxGeometry>
        </mxCell>
        <mxCell id="4Yzc2SaR8rv08KC-M6HZ-65" value="" style="endArrow=none;html=1;rounded=0;entryX=0;entryY=0.5;entryDx=0;entryDy=0;exitX=1;exitY=0.5;exitDx=0;exitDy=0;" parent="1" source="ivYMZoxCvG_gftRGBkcC-19" target="ivYMZoxCvG_gftRGBkcC-22" edge="1">
          <mxGeometry width="50" height="50" relative="1" as="geometry">
            <mxPoint x="-576.9632371484463" y="-562.8062505253931" as="sourcePoint" />
            <mxPoint x="-506" y="-515" as="targetPoint" />
          </mxGeometry>
        </mxCell>
        <mxCell id="4Yzc2SaR8rv08KC-M6HZ-75" value="" style="endArrow=none;html=1;rounded=0;entryX=0.5;entryY=1;entryDx=0;entryDy=0;exitX=0.5;exitY=0;exitDx=0;exitDy=0;" parent="1" source="XgyNKMpnrks1NNAkq2kb-6" target="XgyNKMpnrks1NNAkq2kb-11" edge="1">
          <mxGeometry width="50" height="50" relative="1" as="geometry">
            <mxPoint x="-960" y="-810" as="sourcePoint" />
            <mxPoint x="-910" y="-860" as="targetPoint" />
          </mxGeometry>
        </mxCell>
        <mxCell id="4Yzc2SaR8rv08KC-M6HZ-76" value="&lt;div&gt;Assign&lt;/div&gt;" style="rhombus;whiteSpace=wrap;html=1;" parent="1" vertex="1">
          <mxGeometry x="-1050" y="-390" width="80" height="80" as="geometry" />
        </mxCell>
        <mxCell id="4Yzc2SaR8rv08KC-M6HZ-84" value="TripDistance" style="ellipse;whiteSpace=wrap;html=1;align=center;dashed=1;" parent="1" vertex="1">
          <mxGeometry x="-680" y="-520" width="120" height="37.5" as="geometry" />
        </mxCell>
        <mxCell id="4Yzc2SaR8rv08KC-M6HZ-85" value="SubmitTime" style="ellipse;whiteSpace=wrap;html=1;align=center;dashed=1;" parent="1" vertex="1">
          <mxGeometry x="-679" y="-557.5" width="119" height="37.5" as="geometry" />
        </mxCell>
        <mxCell id="4Yzc2SaR8rv08KC-M6HZ-86" value="TripDuration" style="ellipse;whiteSpace=wrap;html=1;align=center;dashed=1;" parent="1" vertex="1">
          <mxGeometry x="-679" y="-482.5" width="119" height="37.5" as="geometry" />
        </mxCell>
        <mxCell id="4Yzc2SaR8rv08KC-M6HZ-87" value="" style="verticalLabelPosition=bottom;verticalAlign=top;html=1;shape=mxgraph.basic.arc;startAngle=0.46251185199778944;endAngle=0.04613050160726947;rotation=-90;" parent="1" vertex="1">
          <mxGeometry x="-1557" y="-116" width="34" height="26" as="geometry" />
        </mxCell>
        <mxCell id="4Yzc2SaR8rv08KC-M6HZ-88" value="" style="verticalLabelPosition=bottom;verticalAlign=top;html=1;shape=mxgraph.basic.arc;startAngle=0.46251185199778944;endAngle=0.04613050160726947;rotation=-90;" parent="1" vertex="1">
          <mxGeometry x="-1427" y="-110" width="34" height="26" as="geometry" />
        </mxCell>
        <mxCell id="4Yzc2SaR8rv08KC-M6HZ-89" value="" style="verticalLabelPosition=bottom;verticalAlign=top;html=1;shape=mxgraph.basic.arc;startAngle=0.46251185199778944;endAngle=0.04613050160726947;rotation=-90;" parent="1" vertex="1">
          <mxGeometry x="-1332" y="-101" width="34" height="26" as="geometry" />
        </mxCell>
        <mxCell id="4Yzc2SaR8rv08KC-M6HZ-91" value="" style="verticalLabelPosition=bottom;verticalAlign=top;html=1;shape=mxgraph.basic.arc;startAngle=0.46251185199778944;endAngle=0.04613050160726947;rotation=-90;" parent="1" vertex="1">
          <mxGeometry x="-1166" y="-112" width="34" height="26" as="geometry" />
        </mxCell>
        <mxCell id="4Yzc2SaR8rv08KC-M6HZ-93" value="" style="verticalLabelPosition=bottom;verticalAlign=top;html=1;shape=mxgraph.basic.arc;startAngle=0.46251185199778944;endAngle=0.04613050160726947;rotation=-90;" parent="1" vertex="1">
          <mxGeometry x="-1097" y="-116" width="34" height="26" as="geometry" />
        </mxCell>
        <mxCell id="4Yzc2SaR8rv08KC-M6HZ-94" value="" style="verticalLabelPosition=bottom;verticalAlign=top;html=1;shape=mxgraph.basic.arc;startAngle=0.46251185199778944;endAngle=0.04613050160726947;rotation=-90;" parent="1" vertex="1">
          <mxGeometry x="-866" y="-125" width="34" height="26" as="geometry" />
        </mxCell>
        <mxCell id="4Yzc2SaR8rv08KC-M6HZ-95" value="" style="verticalLabelPosition=bottom;verticalAlign=top;html=1;shape=mxgraph.basic.arc;startAngle=0.46251185199778944;endAngle=0.04613050160726947;rotation=-60;" parent="1" vertex="1">
          <mxGeometry x="-775" y="-119" width="34" height="26" as="geometry" />
        </mxCell>
        <mxCell id="4Yzc2SaR8rv08KC-M6HZ-96" value="" style="verticalLabelPosition=bottom;verticalAlign=top;html=1;shape=mxgraph.basic.arc;startAngle=0.46251185199778944;endAngle=0.04613050160726947;rotation=-120;" parent="1" vertex="1">
          <mxGeometry x="-704" y="-121" width="34" height="26" as="geometry" />
        </mxCell>
        <mxCell id="4Yzc2SaR8rv08KC-M6HZ-97" value="" style="verticalLabelPosition=bottom;verticalAlign=top;html=1;shape=mxgraph.basic.arc;startAngle=0.46251185199778944;endAngle=0.04613050160726947;rotation=-90;" parent="1" vertex="1">
          <mxGeometry x="-537" y="-125" width="34" height="26" as="geometry" />
        </mxCell>
        <mxCell id="4Yzc2SaR8rv08KC-M6HZ-98" value="N (1,m)" style="text;html=1;align=center;verticalAlign=middle;resizable=0;points=[];autosize=1;strokeColor=none;fillColor=none;" parent="1" vertex="1">
          <mxGeometry x="-1142" y="-1154" width="60" height="30" as="geometry" />
        </mxCell>
        <mxCell id="4Yzc2SaR8rv08KC-M6HZ-99" value="1 (1,m)" style="text;html=1;align=center;verticalAlign=middle;resizable=0;points=[];autosize=1;strokeColor=none;fillColor=none;" parent="1" vertex="1">
          <mxGeometry x="-1230" y="-715" width="60" height="30" as="geometry" />
        </mxCell>
        <mxCell id="4Yzc2SaR8rv08KC-M6HZ-100" value="" style="endArrow=none;html=1;rounded=0;entryX=-0.005;entryY=0.585;entryDx=0;entryDy=0;entryPerimeter=0;exitX=0.568;exitY=0.068;exitDx=0;exitDy=0;exitPerimeter=0;" parent="1" target="XgyNKMpnrks1NNAkq2kb-77" edge="1" source="XgyNKMpnrks1NNAkq2kb-11">
          <mxGeometry width="50" height="50" relative="1" as="geometry">
            <mxPoint x="-1155" y="-840" as="sourcePoint" />
            <mxPoint x="-1090" y="-1119" as="targetPoint" />
            <Array as="points">
              <mxPoint x="-1155" y="-1029" />
              <mxPoint x="-1155" y="-1119" />
            </Array>
          </mxGeometry>
        </mxCell>
        <mxCell id="4Yzc2SaR8rv08KC-M6HZ-102" value="N (0,m)" style="text;html=1;align=center;verticalAlign=middle;resizable=0;points=[];autosize=1;strokeColor=none;fillColor=none;" parent="1" vertex="1">
          <mxGeometry x="-1090" y="-1094" width="60" height="30" as="geometry" />
        </mxCell>
        <mxCell id="4Yzc2SaR8rv08KC-M6HZ-103" value="M (1,m)" style="text;html=1;align=center;verticalAlign=middle;resizable=0;points=[];autosize=1;strokeColor=none;fillColor=none;" parent="1" vertex="1">
          <mxGeometry x="-1120" y="-708" width="60" height="30" as="geometry" />
        </mxCell>
        <mxCell id="4Yzc2SaR8rv08KC-M6HZ-104" value="" style="endArrow=none;html=1;rounded=0;entryX=0.586;entryY=0.914;entryDx=0;entryDy=0;exitX=0.5;exitY=0;exitDx=0;exitDy=0;entryPerimeter=0;" parent="1" target="XgyNKMpnrks1NNAkq2kb-11" edge="1">
          <mxGeometry width="50" height="50" relative="1" as="geometry">
            <mxPoint x="-1153" y="-685" as="sourcePoint" />
            <mxPoint x="-1153" y="-760" as="targetPoint" />
          </mxGeometry>
        </mxCell>
        <mxCell id="4Yzc2SaR8rv08KC-M6HZ-105" value="N (1,m)" style="text;html=1;align=center;verticalAlign=middle;resizable=0;points=[];autosize=1;strokeColor=none;fillColor=none;" parent="1" vertex="1">
          <mxGeometry x="-741" y="-924" width="60" height="30" as="geometry" />
        </mxCell>
        <mxCell id="4Yzc2SaR8rv08KC-M6HZ-106" value="M (1,1)" style="text;html=1;align=center;verticalAlign=middle;resizable=0;points=[];autosize=1;strokeColor=none;fillColor=none;" parent="1" vertex="1">
          <mxGeometry x="-739" y="-715" width="60" height="30" as="geometry" />
        </mxCell>
        <mxCell id="4Yzc2SaR8rv08KC-M6HZ-108" value="" style="endArrow=none;html=1;rounded=0;entryX=0.45;entryY=0.993;entryDx=0;entryDy=0;entryPerimeter=0;" parent="1" target="XgyNKMpnrks1NNAkq2kb-8" edge="1">
          <mxGeometry width="50" height="50" relative="1" as="geometry">
            <mxPoint x="-750" y="-834" as="sourcePoint" />
            <mxPoint x="-750.36" y="-918" as="targetPoint" />
          </mxGeometry>
        </mxCell>
        <mxCell id="4Yzc2SaR8rv08KC-M6HZ-109" value="M (1,m)" style="text;html=1;align=center;verticalAlign=middle;resizable=0;points=[];autosize=1;strokeColor=none;fillColor=none;" parent="1" vertex="1">
          <mxGeometry x="-1035" y="-550" width="60" height="30" as="geometry" />
        </mxCell>
        <mxCell id="4Yzc2SaR8rv08KC-M6HZ-110" value="M (1,1)" style="text;html=1;align=center;verticalAlign=middle;resizable=0;points=[];autosize=1;strokeColor=none;fillColor=none;" parent="1" vertex="1">
          <mxGeometry x="-1290" y="-300" width="60" height="30" as="geometry" />
        </mxCell>
        <mxCell id="4Yzc2SaR8rv08KC-M6HZ-111" value="1 (1,m)" style="text;html=1;align=center;verticalAlign=middle;resizable=0;points=[];autosize=1;strokeColor=none;fillColor=none;" parent="1" vertex="1">
          <mxGeometry x="-1080" y="-460" width="60" height="30" as="geometry" />
        </mxCell>
        <mxCell id="ivYMZoxCvG_gftRGBkcC-1" value="ContributerID" style="ellipse;whiteSpace=wrap;html=1;fontStyle=4" vertex="1" parent="1">
          <mxGeometry x="-684" y="-984" width="120" height="30" as="geometry" />
        </mxCell>
        <mxCell id="ivYMZoxCvG_gftRGBkcC-2" value="" style="endArrow=none;html=1;rounded=0;exitX=0.449;exitY=-0.006;exitDx=0;exitDy=0;exitPerimeter=0;" edge="1" parent="1" source="XgyNKMpnrks1NNAkq2kb-1">
          <mxGeometry width="50" height="50" relative="1" as="geometry">
            <mxPoint x="-749.5" y="-690" as="sourcePoint" />
            <mxPoint x="-749" y="-765" as="targetPoint" />
          </mxGeometry>
        </mxCell>
        <mxCell id="ivYMZoxCvG_gftRGBkcC-3" value="" style="endArrow=none;html=1;rounded=0;entryX=0.303;entryY=0.804;entryDx=0;entryDy=0;exitX=0.106;exitY=1.029;exitDx=0;exitDy=0;exitPerimeter=0;entryPerimeter=0;" edge="1" parent="1" target="XgyNKMpnrks1NNAkq2kb-16">
          <mxGeometry width="50" height="50" relative="1" as="geometry">
            <mxPoint x="-1123.6399999999999" y="-685.1300000000001" as="sourcePoint" />
            <mxPoint x="-1042" y="-771" as="targetPoint" />
          </mxGeometry>
        </mxCell>
        <mxCell id="ivYMZoxCvG_gftRGBkcC-4" value="M (3,6)" style="text;html=1;align=center;verticalAlign=middle;resizable=0;points=[];autosize=1;strokeColor=none;fillColor=none;" vertex="1" parent="1">
          <mxGeometry x="-477" y="-294" width="60" height="30" as="geometry" />
        </mxCell>
        <mxCell id="ivYMZoxCvG_gftRGBkcC-5" value="1 (1,m)" style="text;html=1;align=center;verticalAlign=middle;resizable=0;points=[];autosize=1;strokeColor=none;fillColor=none;" vertex="1" parent="1">
          <mxGeometry x="-1157" y="-625" width="60" height="30" as="geometry" />
        </mxCell>
        <mxCell id="ivYMZoxCvG_gftRGBkcC-7" value="" style="endArrow=none;html=1;rounded=0;entryX=0.376;entryY=0.126;entryDx=0;entryDy=0;exitX=0.5;exitY=1;exitDx=0;exitDy=0;entryPerimeter=0;" edge="1" parent="1" target="4Yzc2SaR8rv08KC-M6HZ-54">
          <mxGeometry width="50" height="50" relative="1" as="geometry">
            <mxPoint x="-1170" y="-625" as="sourcePoint" />
            <mxPoint x="-1170" y="-595" as="targetPoint" />
          </mxGeometry>
        </mxCell>
        <mxCell id="ivYMZoxCvG_gftRGBkcC-8" value="" style="endArrow=none;html=1;rounded=0;entryX=0.211;entryY=0.012;entryDx=0;entryDy=0;exitX=1;exitY=0.5;exitDx=0;exitDy=0;entryPerimeter=0;" edge="1" parent="1" target="4Yzc2SaR8rv08KC-M6HZ-42">
          <mxGeometry width="50" height="50" relative="1" as="geometry">
            <mxPoint x="-1125" y="-550" as="sourcePoint" />
            <mxPoint x="-1045" y="-515" as="targetPoint" />
            <Array as="points">
              <mxPoint x="-1045" y="-550" />
            </Array>
          </mxGeometry>
        </mxCell>
        <mxCell id="ivYMZoxCvG_gftRGBkcC-11" value="" style="shape=link;html=1;rounded=0;entryX=0.5;entryY=1;entryDx=0;entryDy=0;exitX=0.5;exitY=0;exitDx=0;exitDy=0;" edge="1" parent="1" source="4Yzc2SaR8rv08KC-M6HZ-76" target="4Yzc2SaR8rv08KC-M6HZ-42">
          <mxGeometry width="100" relative="1" as="geometry">
            <mxPoint x="-900" y="-370" as="sourcePoint" />
            <mxPoint x="-800" y="-370" as="targetPoint" />
          </mxGeometry>
        </mxCell>
        <mxCell id="ivYMZoxCvG_gftRGBkcC-12" value="M (6,6)" style="text;html=1;align=center;verticalAlign=middle;resizable=0;points=[];autosize=1;strokeColor=none;fillColor=none;" vertex="1" parent="1">
          <mxGeometry x="-799" y="-294" width="60" height="30" as="geometry" />
        </mxCell>
        <mxCell id="ivYMZoxCvG_gftRGBkcC-14" value="" style="shape=link;html=1;rounded=0;entryX=0;entryY=0.5;entryDx=0;entryDy=0;exitX=0.5;exitY=0;exitDx=0;exitDy=0;" edge="1" parent="1" source="XgyNKMpnrks1NNAkq2kb-21" target="4Yzc2SaR8rv08KC-M6HZ-76">
          <mxGeometry width="100" relative="1" as="geometry">
            <mxPoint x="-1163" y="-350.42" as="sourcePoint" />
            <mxPoint x="-1063" y="-350.42" as="targetPoint" />
            <Array as="points">
              <mxPoint x="-1230" y="-350" />
            </Array>
          </mxGeometry>
        </mxCell>
        <mxCell id="ivYMZoxCvG_gftRGBkcC-15" value="" style="shape=link;html=1;rounded=0;exitX=1;exitY=1;exitDx=0;exitDy=0;entryX=0.5;entryY=0;entryDx=0;entryDy=0;" edge="1" parent="1" source="4Yzc2SaR8rv08KC-M6HZ-76" target="XgyNKMpnrks1NNAkq2kb-22">
          <mxGeometry width="100" relative="1" as="geometry">
            <mxPoint x="-990" y="-310" as="sourcePoint" />
            <mxPoint x="-890" y="-310" as="targetPoint" />
            <Array as="points">
              <mxPoint x="-730" y="-330" />
            </Array>
          </mxGeometry>
        </mxCell>
        <mxCell id="ivYMZoxCvG_gftRGBkcC-16" value="" style="shape=link;html=1;rounded=0;exitX=1;exitY=0.5;exitDx=0;exitDy=0;entryX=0.5;entryY=0;entryDx=0;entryDy=0;" edge="1" parent="1" source="4Yzc2SaR8rv08KC-M6HZ-76" target="XgyNKMpnrks1NNAkq2kb-23">
          <mxGeometry width="100" relative="1" as="geometry">
            <mxPoint x="-960" y="-350.5" as="sourcePoint" />
            <mxPoint x="-860" y="-350.5" as="targetPoint" />
            <Array as="points">
              <mxPoint x="-477" y="-350" />
            </Array>
          </mxGeometry>
        </mxCell>
        <mxCell id="ivYMZoxCvG_gftRGBkcC-17" value="Longitude" style="ellipse;whiteSpace=wrap;html=1;fontStyle=4" vertex="1" parent="1">
          <mxGeometry x="-949" y="-490" width="120" height="35" as="geometry" />
        </mxCell>
        <mxCell id="ivYMZoxCvG_gftRGBkcC-18" value="Latitude" style="ellipse;whiteSpace=wrap;html=1;fontStyle=4" vertex="1" parent="1">
          <mxGeometry x="-949" y="-525" width="120" height="35" as="geometry" />
        </mxCell>
        <mxCell id="ivYMZoxCvG_gftRGBkcC-19" value="TrajPoints" style="ellipse;shape=doubleEllipse;margin=3;whiteSpace=wrap;html=1;align=center;" vertex="1" parent="1">
          <mxGeometry x="-679" y="-595" width="119" height="40" as="geometry" />
        </mxCell>
        <mxCell id="ivYMZoxCvG_gftRGBkcC-20" value="TimeStamp" style="ellipse;whiteSpace=wrap;html=1;" vertex="1" parent="1">
          <mxGeometry x="-510" y="-605" width="120" height="30" as="geometry" />
        </mxCell>
        <mxCell id="ivYMZoxCvG_gftRGBkcC-21" value="Latitude" style="ellipse;whiteSpace=wrap;html=1;" vertex="1" parent="1">
          <mxGeometry x="-510" y="-575" width="120" height="30" as="geometry" />
        </mxCell>
        <mxCell id="ivYMZoxCvG_gftRGBkcC-22" value="Longtitude" style="ellipse;whiteSpace=wrap;html=1;" vertex="1" parent="1">
          <mxGeometry x="-510" y="-545" width="120" height="30" as="geometry" />
        </mxCell>
        <mxCell id="ivYMZoxCvG_gftRGBkcC-25" value="" style="shape=link;html=1;rounded=0;exitX=0.5;exitY=0;exitDx=0;exitDy=0;" edge="1" parent="1" source="XgyNKMpnrks1NNAkq2kb-8" target="4Yzc2SaR8rv08KC-M6HZ-3">
          <mxGeometry width="100" relative="1" as="geometry">
            <mxPoint x="-754" y="-914" as="sourcePoint" />
            <mxPoint x="-804" y="-1024" as="targetPoint" />
          </mxGeometry>
        </mxCell>
        <mxCell id="ivYMZoxCvG_gftRGBkcC-26" value="&lt;div align=&quot;left&quot;&gt;&lt;b&gt;Assumptions made:&lt;/b&gt;&lt;/div&gt;&lt;div align=&quot;left&quot;&gt;1. The cardinalities with Road Data and Region Data have a maximum of 6 coordinates as &lt;br&gt;&lt;/div&gt;&lt;div align=&quot;left&quot;&gt;Appendix A only allows for 6 coordinates to be inputted.&lt;/div&gt;&lt;div align=&quot;left&quot;&gt;2. Coordinates has composite primary keys (Longitude, Latitude) as the info is separate but&amp;nbsp;&lt;/div&gt;&lt;div align=&quot;left&quot;&gt;but connected to one another.&lt;/div&gt;&lt;div align=&quot;left&quot;&gt;3. Region Data has a minimum of 3 coordinates as the problem description states&lt;span id=&quot;page30R_mcid8&quot; class=&quot;markedContent&quot;&gt;&lt;br&gt;&lt;/span&gt;&lt;/div&gt;&lt;div align=&quot;left&quot;&gt;&lt;span id=&quot;page30R_mcid8&quot; class=&quot;markedContent&quot;&gt;&lt;/span&gt;&lt;/div&gt;&lt;div align=&quot;left&quot;&gt;&quot;Region data has... ...a &lt;span id=&quot;page30R_mcid8&quot; class=&quot;markedContent&quot;&gt;&lt;/span&gt;specific sequence of coordinate list as a closed loop.&quot; therefore, requiring&lt;/div&gt;&lt;div align=&quot;left&quot;&gt;the region a minimum of 3 coordinates to make an area.&lt;br&gt;&lt;/div&gt;&lt;div align=&quot;left&quot;&gt;&lt;br&gt;&lt;/div&gt;" style="text;html=1;align=left;verticalAlign=middle;resizable=0;points=[];autosize=1;strokeColor=none;fillColor=none;" vertex="1" parent="1">
          <mxGeometry x="-550" y="-930" width="550" height="140" as="geometry" />
        </mxCell>
      </root>
    </mxGraphModel>
  </diagram>
</mxfile>
